{
    "data": {
        "products": [
            {
                "productId": "2551-4000",
                "lastUpdated": "2022-05-19T14:01:00.00000Z",
                "productCategory": "OVERDRAFTS",
                "effectiveFrom": "2019-12-31T14:00:00.00000Z",
                "effectiveTo": "2030-12-31T13:59:59.00000Z",
                "name": "Business Overdraft (residential secured)",
                "description": "A Great Southern Bank Business overdraft can help you to closely manage your cashflow without compromising your business goals.",
                "brand": "Great Southern Bank",
                "brandName": "Great Southern Bank",
                "applicationUri": "https://www.greatsouthernbank.com.au/business-finance/business-banking-overdraft#how",
                "isTailored": false,
                "additionalInformation": {
                    "overviewUri": "https://www.greatsouthernbank.com.au/business-finance/business-banking-overdraft",
                    "termsUri": "https://www.greatsouthernbank.com.au/business-finance/business-banking-overdraft",
                    "eligibilityUri": "https://www.greatsouthernbank.com.au/business-finance/business-banking-overdraft",
                    "feesAndPricingUri": "https://www.greatsouthernbank.com.au/business-finance/business-banking-overdraft#rates"
                }
            },
            {
                "productId": "2555-4000",
                "lastUpdated": "2022-05-19T14:01:00.00000Z",
                "productCategory": "OVERDRAFTS",
                "effectiveFrom": "2019-12-31T14:00:00.00000Z",
                "effectiveTo": "2030-12-31T13:59:59.00000Z",
                "name": "Business Overdraft (commercial secured)",
                "description": "A Great Southern Bank Business overdraft can help you to closely manage your cashflow without compromising your business goals.",
                "brand": "Great Southern Bank",
                "brandName": "Great Southern Bank",
                "applicationUri": "https://www.greatsouthernbank.com.au/business-finance/business-banking-overdraft#how",
                "isTailored": false,
                "additionalInformation": {
                    "overviewUri": "https://www.greatsouthernbank.com.au/business-finance/business-banking-overdraft",
                    "termsUri": "https://www.greatsouthernbank.com.au/business-finance/business-banking-overdraft",
                    "eligibilityUri": "https://www.greatsouthernbank.com.au/business-finance/business-banking-overdraft",
                    "feesAndPricingUri": "https://www.greatsouthernbank.com.au/business-finance/business-banking-overdraft#rates"
                }
            },
            {
                "productId": "5100-3009",
                "lastUpdated": "2022-05-19T14:01:00.00000Z",
                "productCategory": "BUSINESS_LOANS",
                "effectiveFrom": "2019-12-31T14:00:00.00000Z",
                "effectiveTo": "2030-12-31T13:59:59.00000Z",
                "name": "Commercial Variable - Residentially Secured P&I",
                "description": "Our business loan accounts have no monthly or annual fees, and an offset facility leaving you with more money to invest in your business.",
                "brand": "Great Southern Bank",
                "brandName": "Great Southern Bank",
                "applicationUri": "https://www.greatsouthernbank.com.au/business-finance/business-banking-loans#how",
                "isTailored": false,
                "additionalInformation": {
                    "overviewUri": "https://www.greatsouthernbank.com.au/business-finance/business-banking-loans",
                    "termsUri": "https://www.greatsouthernbank.com.au/business-finance/business-banking-loans",
                    "eligibilityUri": "https://www.greatsouthernbank.com.au/business-finance/business-banking-loans",
                    "feesAndPricingUri": "https://www.greatsouthernbank.com.au/business-finance/business-banking-loans#rates"
                }
            },
            {
                "productId": "5200-3009",
                "lastUpdated": "2022-05-19T14:01:00.00000Z",
                "productCategory": "BUSINESS_LOANS",
                "effectiveFrom": "2019-12-31T14:00:00.00000Z",
                "effectiveTo": "2030-12-31T13:59:59.00000Z",
                "name": "Commercial Variable - Commercially Secured IO",
                "description": "Apply to pay interest only for up to 5 years of the total term on your business loan.",
                "brand": "Great Southern Bank",
                "brandName": "Great Southern Bank",
                "applicationUri": "https://www.greatsouthernbank.com.au/business-finance/business-banking-loans#how",
                "isTailored": false,
                "additionalInformation": {
                    "overviewUri": "https://www.greatsouthernbank.com.au/business-finance/business-banking-loans",
                    "termsUri": "https://www.greatsouthernbank.com.au/business-finance/business-banking-loans",
                    "eligibilityUri": "https://www.greatsouthernbank.com.au/business-finance/business-banking-loans",
                    "feesAndPricingUri": "https://www.greatsouthernbank.com.au/business-finance/business-banking-loans#rates"
                }
            },
            {
                "productId": "5300-3009",
                "lastUpdated": "2022-05-19T14:01:00.00000Z",
                "productCategory": "BUSINESS_LOANS",
                "effectiveFrom": "2019-12-31T14:00:00.00000Z",
                "effectiveTo": "2030-12-31T13:59:59.00000Z",
                "name": "Commercial Variable - Commercially secured P&I",
                "description": "Our business loan accounts have no monthly or annual fees, and an offset facility leaving you with more money to invest in your business.",
                "brand": "Great Southern Bank",
                "brandName": "Great Southern Bank",
                "applicationUri": "https://www.greatsouthernbank.com.au/business-finance/business-banking-loans#how",
                "isTailored": false,
                "additionalInformation": {
                    "overviewUri": "https://www.greatsouthernbank.com.au/business-finance/business-banking-loans",
                    "termsUri": "https://www.greatsouthernbank.com.au/business-finance/business-banking-loans",
                    "eligibilityUri": "https://www.greatsouthernbank.com.au/business-finance/business-banking-loans",
                    "feesAndPricingUri": "https://www.greatsouthernbank.com.au/business-finance/business-banking-loans#rates"
                }
            },
            {
                "productId": "5400-3009",
                "lastUpdated": "2022-05-19T14:01:00.00000Z",
                "productCategory": "BUSINESS_LOANS",
                "effectiveFrom": "2019-12-31T14:00:00.00000Z",
                "effectiveTo": "2030-12-31T13:59:59.00000Z",
                "name": "Commercial Variable - Residentially Secured IO",
                "description": "Apply to pay interest only for up to 5 years of the total term on your business loan.",
                "brand": "Great Southern Bank",
                "brandName": "Great Southern Bank",
                "applicationUri": "https://www.greatsouthernbank.com.au/business-finance/business-banking-loans#how",
                "isTailored": false,
                "additionalInformation": {
                    "overviewUri": "https://www.greatsouthernbank.com.au/business-finance/business-banking-loans",
                    "termsUri": "https://www.greatsouthernbank.com.au/business-finance/business-banking-loans",
                    "eligibilityUri": "https://www.greatsouthernbank.com.au/business-finance/business-banking-loans",
                    "feesAndPricingUri": "https://www.greatsouthernbank.com.au/business-finance/business-banking-loans#rates"
                }
            },
            {
                "productId": "1000-0500",
                "lastUpdated": "2022-05-18T14:01:00.00000Z",
                "productCategory": "TERM_DEPOSITS",
                "effectiveFrom": "2019-12-31T14:00:00.00000Z",
                "effectiveTo": "2030-12-31T13:59:59.00000Z",
                "name": "Standard Rate Term Deposit 1-12 months",
                "description": "Term Deposit between 1 to 12 months with interest paid at maturity.",
                "brand": "Great Southern Bank",
                "brandName": "Great Southern Bank",
                "applicationUri": "https://www.greatsouthernbank.com.au/bank-and-save/term-deposits",
                "isTailored": false,
                "additionalInformation": {
                    "overviewUri": "https://www.greatsouthernbank.com.au/bank-and-save/term-deposits",
                    "termsUri": "https://www.greatsouthernbank.com.au/gitc"
                }
            },
            {
                "productId": "1000-0600",
                "lastUpdated": "2022-05-18T14:01:00.00000Z",
                "productCategory": "TERM_DEPOSITS",
                "effectiveFrom": "2019-12-31T14:00:00.00000Z",
                "effectiveTo": "2030-12-31T13:59:59.00000Z",
                "name": "Platinum Plus Term Deposit 12 months",
                "description": "Term Deposit (for customers aged 55 or over) 12 months with interest paid at maturity.",
                "brand": "Great Southern Bank",
                "brandName": "Great Southern Bank",
                "applicationUri": "https://www.greatsouthernbank.com.au/bank-and-save/term-deposits",
                "isTailored": false,
                "additionalInformation": {
                    "overviewUri": "https://www.greatsouthernbank.com.au/bank-and-save/term-deposits",
                    "termsUri": "https://www.greatsouthernbank.com.au/gitc"
                }
            },
            {
                "productId": "1100-0500",
                "lastUpdated": "2022-05-18T14:01:00.00000Z",
                "productCategory": "TERM_DEPOSITS",
                "effectiveFrom": "2019-12-31T14:00:00.00000Z",
                "effectiveTo": "2030-12-31T13:59:59.00000Z",
                "name": "Standard Rate Term Deposit 13-60 months (A)",
                "description": "Term Deposit between 13 to 60 months with interest paid annually.",
                "brand": "Great Southern Bank",
                "brandName": "Great Southern Bank",
                "applicationUri": "https://www.greatsouthernbank.com.au/bank-and-save/term-deposits",
                "isTailored": false,
                "additionalInformation": {
                    "overviewUri": "https://www.greatsouthernbank.com.au/bank-and-save/term-deposits",
                    "termsUri": "https://www.greatsouthernbank.com.au/gitc"
                }
            },
            {
                "productId": "1100-0600",
                "lastUpdated": "2022-05-18T14:01:00.00000Z",
                "productCategory": "TERM_DEPOSITS",
                "effectiveFrom": "2019-12-31T14:00:00.00000Z",
                "effectiveTo": "2030-12-31T13:59:59.00000Z",
                "name": "Platinum Plus Term Deposit 13-60 Months",
                "description": "Term Deposit (for customers aged 55 or over) between 13-60 months with interest paid annually.",
                "brand": "Great Southern Bank",
                "brandName": "Great Southern Bank",
                "applicationUri": "https://www.greatsouthernbank.com.au/bank-and-save/term-deposits",
                "isTailored": false,
                "additionalInformation": {
                    "overviewUri": "https://www.greatsouthernbank.com.au/bank-and-save/term-deposits",
                    "termsUri": "https://www.greatsouthernbank.com.au/gitc"
                }
            },
            {
                "productId": "1200-0500",
                "lastUpdated": "2022-05-18T14:01:00.00000Z",
                "productCategory": "TERM_DEPOSITS",
                "effectiveFrom": "2019-12-31T14:00:00.00000Z",
                "effectiveTo": "2030-12-31T13:59:59.00000Z",
                "name": "Standard Rate Term Deposit 2-12 months",
                "description": "Term Deposit between 2 to 12 months with interest paid monthly.",
                "brand": "Great Southern Bank",
                "brandName": "Great Southern Bank",
                "applicationUri": "https://www.greatsouthernbank.com.au/bank-and-save/term-deposits",
                "isTailored": false,
                "additionalInformation": {
                    "overviewUri": "https://www.greatsouthernbank.com.au/bank-and-save/term-deposits",
                    "termsUri": "https://www.greatsouthernbank.com.au/gitc"
                }
            },
            {
                "productId": "1200-0600",
                "lastUpdated": "2022-05-18T14:01:00.00000Z",
                "productCategory": "TERM_DEPOSITS",
                "effectiveFrom": "2019-12-31T14:00:00.00000Z",
                "effectiveTo": "2030-12-31T13:59:59.00000Z",
                "name": "Platinum Plus Term Deposit 12 months (M)",
                "description": "Term Deposit (for customers aged 55 or over) 12 months with interest paid monthly.",
                "brand": "Great Southern Bank",
                "brandName": "Great Southern Bank",
                "applicationUri": "https://www.greatsouthernbank.com.au/bank-and-save/term-deposits",
                "isTailored": false,
                "additionalInformation": {
                    "overviewUri": "https://www.greatsouthernbank.com.au/bank-and-save/term-deposits",
                    "termsUri": "https://www.greatsouthernbank.com.au/gitc"
                }
            },
            {
                "productId": "1300-0500",
                "lastUpdated": "2022-05-18T14:01:00.00000Z",
                "productCategory": "TERM_DEPOSITS",
                "effectiveFrom": "2019-12-31T14:00:00.00000Z",
                "effectiveTo": "2030-12-31T13:59:59.00000Z",
                "name": "Standard Rate Term Deposit 13-60 months (M)",
                "description": "Term Deposit between 13 to 60 months with interest paid monthly.",
                "brand": "Great Southern Bank",
                "brandName": "Great Southern Bank",
                "applicationUri": "https://www.greatsouthernbank.com.au/bank-and-save/term-deposits",
                "isTailored": false,
                "additionalInformation": {
                    "overviewUri": "https://www.greatsouthernbank.com.au/bank-and-save/term-deposits",
                    "termsUri": "https://www.greatsouthernbank.com.au/gitc"
                }
            },
            {
                "productId": "1300-0600",
                "lastUpdated": "2022-05-18T14:01:00.00000Z",
                "productCategory": "TERM_DEPOSITS",
                "effectiveFrom": "2019-12-31T14:00:00.00000Z",
                "effectiveTo": "2030-12-31T13:59:59.00000Z",
                "name": "Platinum Plus Term Deposit 13-60 Months (M)",
                "description": "Term Deposit (for customers aged 55 or over) between 13-60 months with interest paid annually.",
                "brand": "Great Southern Bank",
                "brandName": "Great Southern Bank",
                "applicationUri": "https://www.greatsouthernbank.com.au/bank-and-save/term-deposits",
                "isTailored": false,
                "additionalInformation": {
                    "overviewUri": "https://www.greatsouthernbank.com.au/bank-and-save/term-deposits",
                    "termsUri": "https://www.greatsouthernbank.com.au/gitc"
                }
            },
            {
                "productId": "1400-0500",
                "lastUpdated": "2022-05-18T14:01:00.00000Z",
                "productCategory": "TERM_DEPOSITS",
                "effectiveFrom": "2019-12-31T14:00:00.00000Z",
                "effectiveTo": "2030-12-31T13:59:59.00000Z",
                "name": "Standard Rate Term Deposit 1-364 days",
                "description": "Term Deposit between 1 to 364 days with interest paid at maturity.",
                "brand": "Great Southern Bank",
                "brandName": "Great Southern Bank",
                "applicationUri": "https://www.greatsouthernbank.com.au/bank-and-save/term-deposits",
                "isTailored": false,
                "additionalInformation": {
                    "overviewUri": "https://www.greatsouthernbank.com.au/bank-and-save/term-deposits",
                    "termsUri": "https://www.greatsouthernbank.com.au/gitc"
                }
            },
            {
                "productId": "2000-0200",
                "lastUpdated": "2022-05-12T14:01:00.00000Z",
                "productCategory": "TRANS_AND_SAVINGS_ACCOUNTS",
                "effectiveFrom": "2019-12-31T14:00:00.00000Z",
                "effectiveTo": "2030-12-31T13:59:59.00000Z",
                "name": "Everyday Account",
                "description": "An everyday bank account for individual members aged 18 years and over as well as not for profit Organisations, community groups, superannuation funds and trusts.",
                "brand": "Great Southern Bank",
                "brandName": "Great Southern Bank",
                "applicationUri": "https://www.greatsouthernbank.com.au/bank-and-save/everyday-accounts/everyday-account",
                "isTailored": false,
                "additionalInformation": {
                    "overviewUri": "https://www.greatsouthernbank.com.au/bank-and-save/everyday-accounts/everyday-account",
                    "termsUri": "https://www.greatsouthernbank.com.au/gitc",
                    "feesAndPricingUri": "https://www.greatsouthernbank.com.au/sof"
                }
            },
            {
                "productId": "2000-0300",
                "lastUpdated": "2022-05-12T14:01:00.00000Z",
                "productCategory": "TRANS_AND_SAVINGS_ACCOUNTS",
                "effectiveFrom": "2019-12-31T14:00:00.00000Z",
                "effectiveTo": "2030-12-31T13:59:59.00000Z",
                "name": "Everyday Youth Account",
                "description": "An award-winning everyday account for your first taste of financial freedom.",
                "brand": "Great Southern Bank",
                "brandName": "Great Southern Bank",
                "applicationUri": "https://www.greatsouthernbank.com.au/bank-and-save/everyday-accounts/everyday-youth-account",
                "isTailored": false,
                "additionalInformation": {
                    "overviewUri": "https://www.greatsouthernbank.com.au/bank-and-save/everyday-accounts/everyday-youth-account",
                    "termsUri": "https://www.greatsouthernbank.com.au/gitc",
                    "feesAndPricingUri": "https://www.greatsouthernbank.com.au/sof"
                }
            },
            {
                "productId": "2000-2000",
                "lastUpdated": "2022-05-12T14:01:00.00000Z",
                "productCategory": "TRANS_AND_SAVINGS_ACCOUNTS",
                "effectiveFrom": "2019-12-31T14:00:00.00000Z",
                "effectiveTo": "2030-12-31T13:59:59.00000Z",
                "name": "Youth eSaver",
                "description": "An online savings account for newborns up to 17 years old to help save for a bright future.",
                "brand": "Great Southern Bank",
                "brandName": "Great Southern Bank",
                "applicationUri": "https://www.greatsouthernbank.com.au/bank-and-save/savings-accounts/youth-esaver-account",
                "isTailored": false,
                "additionalInformation": {
                    "overviewUri": "https://www.greatsouthernbank.com.au/bank-and-save/savings-accounts/youth-esaver-account",
                    "termsUri": "https://www.greatsouthernbank.com.au/gitc",
                    "feesAndPricingUri": "https://www.greatsouthernbank.com.au/sof"
                }
            },
            {
                "productId": "2000-2300",
                "lastUpdated": "2022-05-12T14:01:00.00000Z",
                "productCategory": "TRANS_AND_SAVINGS_ACCOUNTS",
                "effectiveFrom": "2019-12-31T14:00:00.00000Z",
                "effectiveTo": "2030-12-31T13:59:59.00000Z",
                "name": "eSaver Flexi",
                "description": "Flexible Saver - Access your savings anytime, anywhere via Online and Mobile Banking.",
                "brand": "Great Southern Bank",
                "brandName": "Great Southern Bank",
                "applicationUri": "https://www.greatsouthernbank.com.au/bank-and-save/savings-accounts/esaver-flexi",
                "isTailored": false,
                "additionalInformation": {
                    "overviewUri": "https://www.greatsouthernbank.com.au/bank-and-save/savings-accounts/esaver-flexi",
                    "termsUri": "https://www.greatsouthernbank.com.au/gitc",
                    "feesAndPricingUri": "https://www.greatsouthernbank.com.au/sof"
                }
            },
            {
                "productId": "2000-2600",
                "lastUpdated": "2022-05-12T14:01:00.00000Z",
                "productCategory": "TRANS_AND_SAVINGS_ACCOUNTS",
                "effectiveFrom": "2019-12-31T14:00:00.00000Z",
                "effectiveTo": "2030-12-31T13:59:59.00000Z",
                "name": "Everyday 50+ Account",
                "description": "For those aged 50+",
                "brand": "Great Southern Bank",
                "brandName": "Great Southern Bank",
                "applicationUri": "https://www.greatsouthernbank.com.au/bank-and-save/everyday-accounts/everyday-50-account",
                "isTailored": false,
                "additionalInformation": {
                    "overviewUri": "https://www.greatsouthernbank.com.au/bank-and-save/everyday-accounts/everyday-50-account",
                    "termsUri": "https://www.greatsouthernbank.com.au/gitc",
                    "feesAndPricingUri": "https://www.greatsouthernbank.com.au/sof"
                }
            },
            {
                "productId": "2000-3000",
                "lastUpdated": "2022-05-12T14:01:00.00000Z",
                "productCategory": "TRANS_AND_SAVINGS_ACCOUNTS",
                "effectiveFrom": "2019-12-31T14:00:00.00000Z",
                "effectiveTo": "2030-12-31T13:59:59.00000Z",
                "name": "Everyday Edge Account",
                "description": "An everyday bank account for individual members aged 18 years and over that rewards you with rebates on selected fees if qualifying criteria are met.",
                "brand": "Great Southern Bank",
                "brandName": "Great Southern Bank",
                "applicationUri": "https://www.greatsouthernbank.com.au/bank-and-save/everyday-accounts/everyday-edge-account",
                "isTailored": false,
                "additionalInformation": {
                    "overviewUri": "https://www.greatsouthernbank.com.au/bank-and-save/everyday-accounts/everyday-edge-account",
                    "termsUri": "https://www.greatsouthernbank.com.au/gitc",
                    "feesAndPricingUri": "https://www.greatsouthernbank.com.au/sof"
                }
            },
            {
                "productId": "2000-3100",
                "lastUpdated": "2022-05-12T14:01:00.00000Z",
                "productCategory": "TRANS_AND_SAVINGS_ACCOUNTS",
                "effectiveFrom": "2021-06-12T14:01:00.00000Z",
                "effectiveTo": "2030-12-31T13:59:59.00000Z",
                "name": "Home Saver",
                "description": "Receive bonus interest on balances up to $100,000\u00a0when you deposit $2,000 or more each month into your Everyday Edge Account from a non-Great Southern Bank account and make five or more Visa Debit Card purchases.",
                "brand": "Great Southern Bank",
                "brandName": "Great Southern Bank",
                "applicationUri": "https://www.greatsouthernbank.com.au/bank-and-save/savings-accounts/home-saver",
                "isTailored": false,
                "additionalInformation": {
                    "overviewUri": "https://www.greatsouthernbank.com.au/bank-and-save/savings-accounts/home-saver",
                    "termsUri": "https://www.greatsouthernbank.com.au/gitc",
                    "feesAndPricingUri": "https://www.greatsouthernbank.com.au/sof",
                    "bundleUri": "https://www.greatsouthernbank.com.au/bank-and-save/home-saver-bundle"
                }
            },
            {
                "productId": "2000-3200",
                "lastUpdated": "2022-05-12T14:01:00.00000Z",
                "productCategory": "TRANS_AND_SAVINGS_ACCOUNTS",
                "effectiveFrom": "2022-03-26T14:00:00.00000Z",
                "effectiveTo": "2030-12-31T13:59:59.00000Z",
                "name": "Goal Saver",
                "description": "For customers aged 18 to 24 years old. Receive bonus interest on balances up to $50,000\u00a0when you deposit $500 or more each month into your Everyday Edge Account from a non-Great Southern Bank account and make five or more Visa Debit Card purchases.",
                "brand": "Great Southern Bank",
                "brandName": "Great Southern Bank",
                "applicationUri": "https://www.greatsouthernbank.com.au/bank-and-save/savings-accounts/goal-saver",
                "isTailored": false,
                "additionalInformation": {
                    "overviewUri": "https://www.greatsouthernbank.com.au/bank-and-save/savings-accounts/goal-saver",
                    "termsUri": "https://www.greatsouthernbank.com.au/gitc",
                    "feesAndPricingUri": "https://www.greatsouthernbank.com.au/sof"
                }
            },
            {
                "productId": "2000-4000",
                "lastUpdated": "2022-05-12T14:01:00.00000Z",
                "productCategory": "TRANS_AND_SAVINGS_ACCOUNTS",
                "effectiveFrom": "2019-12-31T14:00:00.00000Z",
                "effectiveTo": "2030-12-31T13:59:59.00000Z",
                "name": "Everyday Business Account",
                "description": "An everyday bank account for business members",
                "brand": "Great Southern Bank",
                "brandName": "Great Southern Bank",
                "applicationUri": "https://www.greatsouthernbank.com.au/business-banking/everyday-business-account",
                "isTailored": false,
                "additionalInformation": {
                    "overviewUri": "https://www.greatsouthernbank.com.au/business-banking/everyday-business-account",
                    "termsUri": "https://www.greatsouthernbank.com.au/gitc",
                    "feesAndPricingUri": "https://www.greatsouthernbank.com.au/sof"
                }
            },
            {
                "productId": "4100-0111",
                "lastUpdated": "2022-05-11T14:00:01.00000Z",
                "productCategory": "RESIDENTIAL_MORTGAGES",
                "effectiveFrom": "2021-05-31T14:00:00.00000Z",
                "effectiveTo": "2030-12-31T13:59:59.00000Z",
                "name": "Offset Variable OO IO",
                "description": "A premium home loan complete with 100% offset and a competitive rate. Get to your property destination faster while saving on interest.",
                "brand": "Great Southern Bank",
                "brandName": "Great Southern Bank",
                "applicationUri": "https://www.greatsouthernbank.com.au/home-loans/offset-variable#get-started",
                "isTailored": false,
                "additionalInformation": {
                    "overviewUri": "https://www.greatsouthernbank.com.au/home-loans/offset-variable",
                    "feesAndPricingUri": "https://www.greatsouthernbank.com.au/tools-and-services/managing-your-accounts/fees"
                }
            }
        ]
    },
    "links": {
        "self": "https://api.open-banking.greatsouthernbank.com.au/cds-au/v1/banking/products?page-size=1000",
        "next": "https://api.open-banking.greatsouthernbank.com.au/cds-au/v1/banking/products?page-size=25&page=2",
        "last": "https://api.open-banking.greatsouthernbank.com.au/cds-au/v1/banking/products?page-size=25&page=3"
    },
    "meta": {
        "totalRecords": 72,
        "totalPages": 3
    }
}