{
    "data": {
        "products": [
            {
                "productId": "",
                "lastUpdated": "2022-05-23T17:44:46.000+10:00",
                "productCategory": "RESIDENTIAL_MORTGAGES",
                "name": "Basic Home Loan",
                "description": "Basic Home Loan",
                "brand": "Goulburn Murray Credit Union Co-Operative Ltd",
                "brandName": "Goulburn Murray Credit Union Co-Operative Ltd",
                "applicationUri": "",
                "isTailored": false,
                "additionalInformation": {
                    "overviewUri": "https://www.gmcu.com.au/products-services/loans",
                    "termsUri": "https://www.gmcu.com.au/pds",
                    "eligibilityUri": "https://www.gmcu.com.au/pds",
                    "feesAndPricingUri": "https://www.gmcu.com.au/pds",
                    "bundleUri": ""
                }
            },
            {
                "productId": "Home_Loan-_Basic_Variable_Investment",
                "lastUpdated": "2022-05-23T17:44:46.000+10:00",
                "productCategory": "RESIDENTIAL_MORTGAGES",
                "name": "Basic Home Loan - Variable Investment",
                "description": "Basic Home Loan - Variable Investment",
                "brand": "Goulburn Murray Credit Union Co-Operative Ltd",
                "brandName": "Goulburn Murray Credit Union Co-Operative Ltd",
                "applicationUri": "https://www.gmcu.com.au/apply-for-a-home-loan",
                "isTailored": false,
                "additionalInformation": {
                    "overviewUri": "https://www.gmcu.com.au/products-services/loans",
                    "termsUri": "https://www.gmcu.com.au/pds",
                    "eligibilityUri": "https://www.gmcu.com.au/pds",
                    "feesAndPricingUri": "https://www.gmcu.com.au/pds",
                    "bundleUri": ""
                }
            },
            {
                "productId": "Basic_Home_Loan_-_Variable_(Land)",
                "lastUpdated": "2022-05-23T17:29:58.000+10:00",
                "productCategory": "RESIDENTIAL_MORTGAGES",
                "name": "Basic Home Loan - Variable (Land)",
                "description": "Basic Home Loan - Variable (Land)",
                "brand": "Goulburn Murray Credit Union Co-Operative Ltd",
                "brandName": "Goulburn Murray Credit Union Co-Operative Ltd",
                "applicationUri": "https://www.gmcu.com.au/apply-for-a-home-loan",
                "isTailored": false,
                "additionalInformation": {
                    "overviewUri": "https://www.gmcu.com.au/products-services/loans",
                    "termsUri": "https://www.gmcu.com.au/pds",
                    "eligibilityUri": "https://www.gmcu.com.au/pds",
                    "feesAndPricingUri": "https://www.gmcu.com.au/pds",
                    "bundleUri": ""
                }
            },
            {
                "productId": "Home_Loan-_Basic_Variable",
                "lastUpdated": "2022-05-23T17:29:58.000+10:00",
                "productCategory": "RESIDENTIAL_MORTGAGES",
                "name": "Basic Home Loan - Variable",
                "description": "Basic Home Loan - Variable",
                "brand": "Goulburn Murray Credit Union Co-Operative Ltd",
                "brandName": "Goulburn Murray Credit Union Co-Operative Ltd",
                "applicationUri": "https://www.gmcu.com.au/apply-for-a-home-loan",
                "isTailored": false,
                "additionalInformation": {
                    "overviewUri": "https://www.gmcu.com.au/products-services/loans",
                    "termsUri": "https://www.gmcu.com.au/pds",
                    "eligibilityUri": "https://www.gmcu.com.au/pds",
                    "feesAndPricingUri": "https://www.gmcu.com.au/pds",
                    "bundleUri": ""
                }
            },
            {
                "productId": "Business/Farm/Comercial-_Other_Real_Estate_Mortgage",
                "lastUpdated": "2022-05-23T17:23:23.000+10:00",
                "productCategory": "BUSINESS_LOANS",
                "name": "Business/Farm/Comercial- Other Real Estate Mortgage Loan",
                "description": "Business/Farm/Comercial- Other Real Estate Mortgage Loan",
                "brand": "Goulburn Murray Credit Union Co-Operative Ltd",
                "brandName": "Goulburn Murray Credit Union Co-Operative Ltd",
                "applicationUri": "",
                "isTailored": false,
                "additionalInformation": {
                    "overviewUri": "https://www.gmcu.com.au/products-services/loans",
                    "termsUri": "https://www.gmcu.com.au/pds",
                    "eligibilityUri": "https://www.gmcu.com.au/pds",
                    "feesAndPricingUri": "https://www.gmcu.com.au/pds",
                    "bundleUri": ""
                }
            },
            {
                "productId": "Business/Farm/Comercial-_Residential_Mortgage",
                "lastUpdated": "2022-05-23T17:23:09.000+10:00",
                "productCategory": "BUSINESS_LOANS",
                "name": "Business/Farm/Comercial- Residential Mortgage loan",
                "description": "Business/Farm/Comercial- Residential Mortgage Loan",
                "brand": "Goulburn Murray Credit Union Co-Operative Ltd",
                "brandName": "Goulburn Murray Credit Union Co-Operative Ltd",
                "applicationUri": "",
                "isTailored": false,
                "additionalInformation": {
                    "overviewUri": "https://www.gmcu.com.au/products-services/loans",
                    "termsUri": "https://www.gmcu.com.au/pds",
                    "eligibilityUri": "https://www.gmcu.com.au/pds",
                    "feesAndPricingUri": "https://www.gmcu.com.au/pds",
                    "bundleUri": ""
                }
            },
            {
                "productId": "Standard_Home_Loan_-_Self_Managed_Super_Fund-_other_secured",
                "lastUpdated": "2022-05-23T17:13:10.000+10:00",
                "productCategory": "RESIDENTIAL_MORTGAGES",
                "name": "Standard Home Loan - Self Managed Super Fund- other secured",
                "description": "Standard Home Loan - Self Managed Super Fund- other secured",
                "brand": "Goulburn Murray Credit Union Co-Operative Ltd",
                "brandName": "Goulburn Murray Credit Union Co-Operative Ltd",
                "applicationUri": "",
                "isTailored": false,
                "additionalInformation": {
                    "overviewUri": "https://www.gmcu.com.au/products-services/loans",
                    "termsUri": "https://www.gmcu.com.au/pds",
                    "eligibilityUri": "https://www.gmcu.com.au/pds",
                    "feesAndPricingUri": "https://www.gmcu.com.au/pds",
                    "bundleUri": ""
                }
            },
            {
                "productId": "Home_Loan-_Self_Managed_Super_Fund",
                "lastUpdated": "2022-05-23T17:12:06.000+10:00",
                "productCategory": "RESIDENTIAL_MORTGAGES",
                "name": "Standard Home Loan - Self Managed Super Fund- Residential secured",
                "description": "Standard Home Loan - Self Managed Super Fund- Residential secured",
                "brand": "Goulburn Murray Credit Union Co-Operative Ltd",
                "brandName": "Goulburn Murray Credit Union Co-Operative Ltd",
                "applicationUri": "",
                "isTailored": false,
                "additionalInformation": {
                    "overviewUri": "https://www.gmcu.com.au/products-services/loans",
                    "termsUri": "https://www.gmcu.com.au/pds",
                    "eligibilityUri": "https://www.gmcu.com.au/pds",
                    "feesAndPricingUri": "https://www.gmcu.com.au/pds",
                    "bundleUri": ""
                }
            },
            {
                "productId": "Home_Loan-_Other_Real_Estate_Mortgage_Loans_(Variable)",
                "lastUpdated": "2022-05-23T17:06:03.000+10:00",
                "productCategory": "RESIDENTIAL_MORTGAGES",
                "name": "Basic Home Loan- Other Real Estate Mortgage Loans (Variable)",
                "description": "Basic Home Loan- Other Real Estate Mortgage Loans (Variable)",
                "brand": "Goulburn Murray Credit Union Co-Operative Ltd",
                "brandName": "Goulburn Murray Credit Union Co-Operative Ltd",
                "applicationUri": "https://www.gmcu.com.au/apply-for-a-home-loan",
                "isTailored": false,
                "additionalInformation": {
                    "overviewUri": "https://www.gmcu.com.au/products-services/loans",
                    "termsUri": "https://www.gmcu.com.au/pds",
                    "eligibilityUri": "https://www.gmcu.com.au/pds",
                    "feesAndPricingUri": "https://www.gmcu.com.au/pds",
                    "bundleUri": ""
                }
            },
            {
                "productId": "Home_Loan-_Standard_Variable",
                "lastUpdated": "2022-05-23T16:59:47.000+10:00",
                "productCategory": "RESIDENTIAL_MORTGAGES",
                "name": "Standard Home Loan- Variable",
                "description": "Standard Home Loan- Variable",
                "brand": "Goulburn Murray Credit Union Co-Operative Ltd",
                "brandName": "Goulburn Murray Credit Union Co-Operative Ltd",
                "applicationUri": "https://www.gmcu.com.au/apply-for-a-home-loan",
                "isTailored": false,
                "additionalInformation": {
                    "overviewUri": "https://www.gmcu.com.au/products-services/loans",
                    "termsUri": "https://www.gmcu.com.au/pds",
                    "eligibilityUri": "https://www.gmcu.com.au/pds",
                    "feesAndPricingUri": "https://www.gmcu.com.au/pds",
                    "bundleUri": ""
                }
            },
            {
                "productId": "Standard_Home_Loan-_Variable_(Land)",
                "lastUpdated": "2022-05-23T16:59:47.000+10:00",
                "productCategory": "RESIDENTIAL_MORTGAGES",
                "name": "Standard Home Loan- Variable (Land)",
                "description": "Standard Home Loan- Variable (Land)",
                "brand": "Goulburn Murray Credit Union Co-Operative Ltd",
                "brandName": "Goulburn Murray Credit Union Co-Operative Ltd",
                "applicationUri": "https://www.gmcu.com.au/apply-for-a-home-loan",
                "isTailored": false,
                "additionalInformation": {
                    "overviewUri": "https://www.gmcu.com.au/products-services/loans",
                    "termsUri": "https://www.gmcu.com.au/pds",
                    "eligibilityUri": "https://www.gmcu.com.au/pds",
                    "feesAndPricingUri": "https://www.gmcu.com.au/pds",
                    "bundleUri": ""
                }
            },
            {
                "productId": "Home_Loan-_Investment_fixed_18_months_(Special_construction_offer)",
                "lastUpdated": "2022-05-03T19:54:51.000+10:00",
                "productCategory": "RESIDENTIAL_MORTGAGES",
                "name": "Basic Home Loan - Investment Fixed 18 months (Special construction offer)",
                "description": "Basic Home Loan - Investment Fixed 18 months (Special construction offer)",
                "brand": "Goulburn Murray Credit Union Co-Operative Ltd",
                "brandName": "Goulburn Murray Credit Union Co-Operative Ltd",
                "applicationUri": "https://www.gmcu.com.au/apply-for-a-home-loan",
                "isTailored": false,
                "additionalInformation": {
                    "overviewUri": "https://www.gmcu.com.au/products-services/loans",
                    "termsUri": "https://www.gmcu.com.au/pds",
                    "eligibilityUri": "https://www.gmcu.com.au/pds",
                    "feesAndPricingUri": "https://www.gmcu.com.au/pds",
                    "bundleUri": ""
                }
            },
            {
                "productId": "Home_Loan-_Investment_Fixed_3_years",
                "lastUpdated": "2022-05-03T19:54:32.000+10:00",
                "productCategory": "RESIDENTIAL_MORTGAGES",
                "name": "Basic Home Loan - Investment Fixed 3 years",
                "description": "Basic Home Loan - Investment Fixed 3 years",
                "brand": "Goulburn Murray Credit Union Co-Operative Ltd",
                "brandName": "Goulburn Murray Credit Union Co-Operative Ltd",
                "applicationUri": "https://www.gmcu.com.au/apply-for-a-home-loan",
                "isTailored": false,
                "additionalInformation": {
                    "overviewUri": "https://www.gmcu.com.au/products-services/loans",
                    "termsUri": "https://www.gmcu.com.au/pds",
                    "eligibilityUri": "https://www.gmcu.com.au/pds",
                    "feesAndPricingUri": "https://www.gmcu.com.au/pds",
                    "bundleUri": ""
                }
            },
            {
                "productId": "Home_Loan-_Investment_Fixed_2_years",
                "lastUpdated": "2022-05-03T19:54:10.000+10:00",
                "productCategory": "RESIDENTIAL_MORTGAGES",
                "name": "Basic Home Loan - Investment Fixed 2 years",
                "description": "Basic Home Loan - Investment Fixed 2 years",
                "brand": "Goulburn Murray Credit Union Co-Operative Ltd",
                "brandName": "Goulburn Murray Credit Union Co-Operative Ltd",
                "applicationUri": "https://www.gmcu.com.au/apply-for-a-home-loan",
                "isTailored": false,
                "additionalInformation": {
                    "overviewUri": "https://www.gmcu.com.au/products-services/loans",
                    "termsUri": "https://www.gmcu.com.au/pds",
                    "eligibilityUri": "https://www.gmcu.com.au/pds",
                    "feesAndPricingUri": "https://www.gmcu.com.au/pds",
                    "bundleUri": ""
                }
            },
            {
                "productId": "Home_Loan-_Fixed_18_months_(Special_construction_offer)",
                "lastUpdated": "2022-05-03T19:52:19.000+10:00",
                "productCategory": "RESIDENTIAL_MORTGAGES",
                "name": "Basic Home Loan- Fixed 18 months (Special construction offer)",
                "description": "Basic Home Loan- Fixed 18 months (Special construction offer)",
                "brand": "Goulburn Murray Credit Union Co-Operative Ltd",
                "brandName": "Goulburn Murray Credit Union Co-Operative Ltd",
                "applicationUri": "https://www.gmcu.com.au/apply-for-a-home-loan",
                "isTailored": false,
                "additionalInformation": {
                    "overviewUri": "https://www.gmcu.com.au/products-services/loans",
                    "termsUri": "https://www.gmcu.com.au/pds",
                    "eligibilityUri": "https://www.gmcu.com.au/pds",
                    "feesAndPricingUri": "https://www.gmcu.com.au/pds",
                    "bundleUri": ""
                }
            },
            {
                "productId": "Basic_Home_Loan_-_Fixed_3_years_(Land)",
                "lastUpdated": "2022-05-03T19:52:00.000+10:00",
                "productCategory": "RESIDENTIAL_MORTGAGES",
                "name": "Basic Home Loan - Fixed 3 years (Land)",
                "description": "Basic Home Loan - Fixed 3 years (Land)",
                "brand": "Goulburn Murray Credit Union Co-Operative Ltd",
                "brandName": "Goulburn Murray Credit Union Co-Operative Ltd",
                "applicationUri": "https://www.gmcu.com.au/apply-for-a-home-loan",
                "isTailored": false,
                "additionalInformation": {
                    "overviewUri": "https://www.gmcu.com.au/products-services/loans",
                    "termsUri": "https://www.gmcu.com.au/pds",
                    "eligibilityUri": "https://www.gmcu.com.au/pds",
                    "feesAndPricingUri": "https://www.gmcu.com.au/pds",
                    "bundleUri": ""
                }
            },
            {
                "productId": "Home_Loan-_Fixed_3_years",
                "lastUpdated": "2022-05-03T19:52:00.000+10:00",
                "productCategory": "RESIDENTIAL_MORTGAGES",
                "name": "Basic Home Loan - Fixed 3 years",
                "description": "Basic Home Loan - Fixed 3 years",
                "brand": "Goulburn Murray Credit Union Co-Operative Ltd",
                "brandName": "Goulburn Murray Credit Union Co-Operative Ltd",
                "applicationUri": "https://www.gmcu.com.au/apply-for-a-home-loan",
                "isTailored": false,
                "additionalInformation": {
                    "overviewUri": "https://www.gmcu.com.au/products-services/loans",
                    "termsUri": "https://www.gmcu.com.au/pds",
                    "eligibilityUri": "https://www.gmcu.com.au/pds",
                    "feesAndPricingUri": "https://www.gmcu.com.au/pds",
                    "bundleUri": ""
                }
            },
            {
                "productId": "Basic_Home_Loan_-_Fixed_2_years_(Land)",
                "lastUpdated": "2022-05-03T19:51:32.000+10:00",
                "productCategory": "RESIDENTIAL_MORTGAGES",
                "name": "Basic Home Loan - Fixed 2 years (Land)",
                "description": "Basic Home Loan - Fixed 2 years (Land)",
                "brand": "Goulburn Murray Credit Union Co-Operative Ltd",
                "brandName": "Goulburn Murray Credit Union Co-Operative Ltd",
                "applicationUri": "https://www.gmcu.com.au/apply-for-a-home-loan",
                "isTailored": false,
                "additionalInformation": {
                    "overviewUri": "https://www.gmcu.com.au/products-services/loans",
                    "termsUri": "https://www.gmcu.com.au/pds",
                    "eligibilityUri": "https://www.gmcu.com.au/pds",
                    "feesAndPricingUri": "https://www.gmcu.com.au/pds",
                    "bundleUri": ""
                }
            },
            {
                "productId": "Home_Loan-_Fixed_2_years",
                "lastUpdated": "2022-05-03T19:51:32.000+10:00",
                "productCategory": "RESIDENTIAL_MORTGAGES",
                "name": "Basic Home Loan - Fixed 2 years",
                "description": "Basic Home Loan - Fixed 2 years",
                "brand": "Goulburn Murray Credit Union Co-Operative Ltd",
                "brandName": "Goulburn Murray Credit Union Co-Operative Ltd",
                "applicationUri": "https://www.gmcu.com.au/apply-for-a-home-loan",
                "isTailored": false,
                "additionalInformation": {
                    "overviewUri": "https://www.gmcu.com.au/products-services/loans",
                    "termsUri": "https://www.gmcu.com.au/pds",
                    "eligibilityUri": "https://www.gmcu.com.au/pds",
                    "feesAndPricingUri": "https://www.gmcu.com.au/pds",
                    "bundleUri": ""
                }
            },
            {
                "productId": "Home_Loan-_Investment_fixed_1_year",
                "lastUpdated": "2022-04-14T08:06:36.000+10:00",
                "productCategory": "RESIDENTIAL_MORTGAGES",
                "name": "Basic Home Loan - Investmnet Fixed 1 year",
                "description": "Basic Home Loan - Investment Fixed 1 year",
                "brand": "Goulburn Murray Credit Union Co-Operative Ltd",
                "brandName": "Goulburn Murray Credit Union Co-Operative Ltd",
                "applicationUri": "https://www.gmcu.com.au/apply-for-a-home-loan",
                "isTailored": false,
                "additionalInformation": {
                    "overviewUri": "https://www.gmcu.com.au/products-services/loans",
                    "termsUri": "https://www.gmcu.com.au/pds",
                    "eligibilityUri": "https://www.gmcu.com.au/pds",
                    "feesAndPricingUri": "https://www.gmcu.com.au/pds",
                    "bundleUri": ""
                }
            },
            {
                "productId": "Basic_Home_Loan-_Fixed_1_year_(Land)",
                "lastUpdated": "2022-04-14T08:03:11.000+10:00",
                "productCategory": "RESIDENTIAL_MORTGAGES",
                "name": "Basic Home Loan- Fixed 1 year (Land)",
                "description": "Basic Home Loan- Fixed 1 year (Land)",
                "brand": "Goulburn Murray Credit Union Co-Operative Ltd",
                "brandName": "Goulburn Murray Credit Union Co-Operative Ltd",
                "applicationUri": "https://www.gmcu.com.au/apply-for-a-home-loan",
                "isTailored": false,
                "additionalInformation": {
                    "overviewUri": "https://www.gmcu.com.au/products-services/loans",
                    "termsUri": "https://www.gmcu.com.au/pds",
                    "eligibilityUri": "https://www.gmcu.com.au/pds",
                    "feesAndPricingUri": "https://www.gmcu.com.au/pds",
                    "bundleUri": ""
                }
            },
            {
                "productId": "Home_Loan-_Fixed_1_year",
                "lastUpdated": "2022-04-14T08:03:11.000+10:00",
                "productCategory": "RESIDENTIAL_MORTGAGES",
                "name": "Basic Home Loan- Fixed 1 year",
                "description": "Basic Home Loan- Fixed 1 year",
                "brand": "Goulburn Murray Credit Union Co-Operative Ltd",
                "brandName": "Goulburn Murray Credit Union Co-Operative Ltd",
                "applicationUri": "https://www.gmcu.com.au/apply-for-a-home-loan",
                "isTailored": false,
                "additionalInformation": {
                    "overviewUri": "https://www.gmcu.com.au/products-services/loans",
                    "termsUri": "https://www.gmcu.com.au/pds",
                    "eligibilityUri": "https://www.gmcu.com.au/pds",
                    "feesAndPricingUri": "https://www.gmcu.com.au/pds",
                    "bundleUri": ""
                }
            },
            {
                "productId": "Basic_Home_Loan-_Variable_Special_Investment_Offer_(Land)",
                "lastUpdated": "2022-02-07T15:53:25.000+11:00",
                "productCategory": "RESIDENTIAL_MORTGAGES",
                "name": "Basic Home Loan- Variable Special Investment Offer (Land)",
                "description": "Basic Home Loan- Variable Special Investment Offer (Land)",
                "brand": "Goulburn Murray Credit Union Co-Operative Ltd",
                "brandName": "Goulburn Murray Credit Union Co-Operative Ltd",
                "applicationUri": "https://www.gmcu.com.au/apply-for-a-home-loan",
                "isTailored": false,
                "additionalInformation": {
                    "overviewUri": "https://www.gmcu.com.au/products-services/loans",
                    "termsUri": "https://www.gmcu.com.au/pds",
                    "eligibilityUri": "https://www.gmcu.com.au/pds",
                    "feesAndPricingUri": "https://www.gmcu.com.au/pds",
                    "bundleUri": ""
                }
            },
            {
                "productId": "Basic_Home_Loan_-_Variable_Special_Offer_Plus_(Land)",
                "lastUpdated": "2022-02-07T15:53:25.000+11:00",
                "productCategory": "RESIDENTIAL_MORTGAGES",
                "name": "Basic Home Loan - Variable Special Offer Plus (Land)",
                "description": "Basic Home Loan - Variable Special Offer Plus (Land)",
                "brand": "Goulburn Murray Credit Union Co-Operative Ltd",
                "brandName": "Goulburn Murray Credit Union Co-Operative Ltd",
                "applicationUri": "https://www.gmcu.com.au/apply-for-a-home-loan",
                "isTailored": false,
                "additionalInformation": {
                    "overviewUri": "https://www.gmcu.com.au/products-services/loans",
                    "termsUri": "https://www.gmcu.com.au/pds",
                    "eligibilityUri": "https://www.gmcu.com.au/pds",
                    "feesAndPricingUri": "https://www.gmcu.com.au/pds",
                    "bundleUri": ""
                }
            },
            {
                "productId": "Home_Loan-_Basic_Variable-_Special_Investment_Offer",
                "lastUpdated": "2022-02-07T15:53:25.000+11:00",
                "productCategory": "RESIDENTIAL_MORTGAGES",
                "name": "Basic Home Loan- Variable Special Investment Offer",
                "description": "Basic Home Loan- Variable Special Investment Offer",
                "brand": "Goulburn Murray Credit Union Co-Operative Ltd",
                "brandName": "Goulburn Murray Credit Union Co-Operative Ltd",
                "applicationUri": "https://www.gmcu.com.au/apply-for-a-home-loan",
                "isTailored": false,
                "additionalInformation": {
                    "overviewUri": "https://www.gmcu.com.au/products-services/loans",
                    "termsUri": "https://www.gmcu.com.au/pds",
                    "eligibilityUri": "https://www.gmcu.com.au/pds",
                    "feesAndPricingUri": "https://www.gmcu.com.au/pds",
                    "bundleUri": ""
                }
            }
        ]
    },
    "links": {
        "first": null,
        "prev": null,
        "next": "https://secure.gmcu.com.au/OpenBanking/cds-au/v1/banking/products/?page=2",
        "last": "https://secure.gmcu.com.au/OpenBanking/cds-au/v1/banking/products/?page=2",
        "self": "https://secure.gmcu.com.au/OpenBanking/cds-au/v1/banking/products/"
    },
    "meta": {
        "totalRecords": 48,
        "totalPages": 2
    }
}